{
   "1.23": "00",
   "1.22": "01",
   "2.4": "02",
   "2.5": "03",
   "3.1": "04",
   "3.2": "05",
   "3.4": "06",
   "3.25+3.31": "08",
   "5.19": "09",
   "Other": "10",
   "No sign": "11",

   "4.7": "13",

   "3.24_5": "07",
   "3.24_10": "14",
   "3.24_20": "15",
   "3.24_30": "16",
   "3.24_40": "17",
   "3.24_50": "18",
   "3.24_60": "19",
   "3.24_70": "20",
   "3.24_80": "21",
   "3.24_100": "22",
   "3.24_120": "23",

   "3.24_15": "24",
   "3.24_90": "25",
   "3.24_110": "26",
   "4.6_20": "27",
   "4.6_30": "28",
   "4.6_40": "29",
   "4.6_50": "30",
   "4.6_60": "31",
   "4.6_70": "32",
   "4.6_80": "12",
   "5.5": "33",
   "4.3": "34",

   "3.24_130": "35",
   "3.24_140": "36",
   "3.24_150": "37"
}
